{
  "project_info": {
    "project_number": "336977454255",
    "project_id": "dilofirebase-4d137",
    "storage_bucket": "dilofirebase-4d137.appspot.com"
  },
  "client": [
    {
      "client_info": {
        "mobilesdk_app_id": "1:336977454255:android:f9a7045f08f19ddc16a05a",
        "android_client_info": {
          "package_name": "com.dilo.incrementalGame"
        }
      },
      "oauth_client": [
        {
          "client_id": "336977454255-s302rj1d0o0kbm3ave8pv26dtapima4s.apps.googleusercontent.com",
          "client_type": 3
        }
      ],
      "api_key": [
        {
          "current_key": "AIzaSyAyzb769EPQlp32QUuK6iirhx5kD0FOfFE"
        }
      ],
      "services": {
        "appinvite_service": {
          "other_platform_oauth_client": [
            {
              "client_id": "336977454255-s302rj1d0o0kbm3ave8pv26dtapima4s.apps.googleusercontent.com",
              "client_type": 3
            }
          ]
        }
      }
    }
  ],
  "configuration_version": "1"
}